A Walk Into Sensory Science
…
chocolates <- 
  read_csv(
    "https://dqlab-dataset.s3-ap-southeast-1.amazonaws.com/chocolates.csv",
    col_types = cols(
      panelist = col_factor(),
      session = col_factor(),
      rank = col_factor(),
      product = col_factor(levels = paste0("choc", 1:6)),
      .default = col_integer()
    )
  )
chocolates

# A tibble: 348 x 18
   panelist session rank  product cocoa_a milk_a cocoa_f milk_f caramel vanilla
   <fct>    <fct>   <fct> <fct>     <int>  <int>   <int>  <int>   <int>   <int>
 1 id_001   sessio~ orde~ choc6         7      6       6      5       5       3
 2 id_001   sessio~ orde~ choc3         6      7       2      7       8       4
 3 id_001   sessio~ orde~ choc2         8      6       5      4       7       4
 4 id_001   sessio~ orde~ choc1         7      8       8      3       3       2
 5 id_001   sessio~ orde~ choc4         8      5       4      4       4       4
 6 id_001   sessio~ orde~ choc5         7      5       3      5       6       2
 7 id_002   sessio~ orde~ choc4         6      1       8      1       0       0
 8 id_002   sessio~ orde~ choc3         4      2       3      4       0       0
 9 id_002   sessio~ orde~ choc6         5      1       8      1       0       0
10 id_002   sessio~ orde~ choc2         5      2       8      1       0       0
# ... with 338 more rows, and 8 more variables: sweetness <int>, acidity <int>,
#   bitterness <int>, astringency <int>, crunchy <int>, melting <int>,
#   sticky <int>, granular <int>
…
