Project Data Analysis for Finance Proses Investasi Investor
…
Event investor melihat detail loan

library(dplyr)

df_view_loan <- df_event %>% 
                    filter(nama_event == 'investor_view_loan') %>% 
                    group_by(loan_id, investor_id) %>% 
                    summarise(jumlah_view = n(), 
                              pertama_view = min(created_at), 
                              terakhir_view = max(created_at))
df_view_loan

# A tibble: 4,309 x 5
# Groups:   loan_id [3,678]
   loan_id investor_id jumlah_view pertama_view        terakhir_view      
     <int>       <int>       <int> <dttm>              <dttm>             
 1       1         107           1 2019-07-07 11:48:11 2019-07-07 11:48:11
 2       2         114           1 2019-07-07 11:47:58 2019-07-07 11:47:58
 3       3          97           1 2019-07-06 09:50:00 2019-07-06 09:50:00
 4       4          97           1 2019-07-06 09:49:20 2019-07-06 09:49:20
 5       5         107           1 2019-07-05 12:54:25 2019-07-05 12:54:25
 6       6         163           1 2019-07-08 16:40:31 2019-07-08 16:40:31
 7       7         133           2 2019-07-14 11:04:46 2019-07-14 11:16:18
 8       8          71           1 2019-07-05 11:47:10 2019-07-05 11:47:10
 9       8          79           1 2019-07-05 12:05:14 2019-07-05 12:05:14
10       9          79           1 2019-07-05 12:09:43 2019-07-05 12:09:43
# ... with 4,299 more rows
…
